Plotting tongue contours with ggplot2 | Stefano Coretta
…
      Plotting tongue contours with ggplot2

August 23, 2018 · 6 min · Stefano Coretta

When plotting tongue contours data obtained from ultrasound tongue imaging in R using ggplot2, a common option to smooth over the individual contours and show the general pattern is to use geom_smooth(methood = "loess"). However, as I will show in this post, in certain cases this method leads to very disorted contours. Such distortion is more or less always present, although at a lower degree in less extreme cases.

To show the shortcomings of using geom_smooth() and present a viable alternative, we’ll be using ultrasound tongue imaging data from one speaker (me). This dataset includes tongue contours from within the closure of the conosonants /t, d/ preceeded by /a, o, u/. The dataset looks like this (some columns dropped):

select(tongue_data, rec_date, fan_line, X, Y, word, vowel, c2)

## # A tibble: 1,239 × 7
##    rec_date            fan_line     X     Y word  vowel c2   
##    <chr>                  <int> <dbl> <dbl> <chr> <chr> <chr>
##  1 29/11/2016 15:10:52        6  37.4  9.25 pada  a     d    
##  2 29/11/2016 15:21:30        6  38.6 13.1  pada  a     d    
##  3 29/11/2016 15:10:52        7  34.4 10.3  pada  a     d    
##  4 29/11/2016 15:11:03        7  34.3  9.81 pata  a     t    
##  5 29/11/2016 15:11:14        7  34.6 11.0  podo  o     d    
##  6 29/11/2016 15:13:39        7  34.3  9.65 pada  a     d    
##  7 29/11/2016 15:16:05        7  34.8 11.5  pada  a     d    
##  8 29/11/2016 15:17:07        7  34.5 10.5  putu  u     t    
##  9 29/11/2016 15:19:45        7  34.3  9.64 putu  u     t    
## 10 29/11/2016 15:21:30        7  35.4 13.8  pada  a     d    
## # … with 1,229 more rows
…
While the smooths with /a/ and /o/ more or less have a good fit when compared to the points, with /u/ the smooths are really off.

This happpens because the tongue root (in this particular case) developpes vertically rather than slanted. The smooth isagnostic about the fact that points lying on the same X value but with different Y values belong to different portion of the tongue contour. The result is that smoothing happens across tongue parts.

An alternative (if you don’t like points) is to use geom_path() to plot the individual tongue contours as lines. geom_path() connects points with a line, following the order in which they appear in the dataset. So, before using this geometry, we need to arrange the dataframe such that the points are in the right order (now they are in the wrong order).

To do so, we can use rec_date (which identifies the individual contours) and fan_line which indicates the orders of points (for each contour, there a maximum 42 points/fan lines; NAs have been excluded).

tongue_data <- tongue_data %>%
  arrange(rec_date, fan_line)

tongue_data

## # A tibble: 1,239 × 30
##    speaker seconds rec_date            prompt label TT_displacement… TT_velocity
##    <chr>     <dbl> <chr>               <chr>  <chr>            <dbl>       <dbl>
##  1 it01       1.11 29/11/2016 15:10:52 Dico … max_…             77.4       -7.18
##  2 it01       1.11 29/11/2016 15:10:52 Dico … max_…             77.4       -7.18
##  3 it01       1.11 29/11/2016 15:10:52 Dico … max_…             77.4       -7.18
##  4 it01       1.11 29/11/2016 15:10:52 Dico … max_…             77.4       -7.18
##  5 it01       1.11 29/11/2016 15:10:52 Dico … max_…             77.4       -7.18
##  6 it01       1.11 29/11/2016 15:10:52 Dico … max_…             77.4       -7.18
##  7 it01       1.11 29/11/2016 15:10:52 Dico … max_…             77.4       -7.18
##  8 it01       1.11 29/11/2016 15:10:52 Dico … max_…             77.4       -7.18
##  9 it01       1.11 29/11/2016 15:10:52 Dico … max_…             77.4       -7.18
## 10 it01       1.11 29/11/2016 15:10:52 Dico … max_…             77.4       -7.18
## # … with 1,229 more rows, and 23 more variables: TT_velocity_abs <dbl>,
## #   TD_displacement_sm <dbl>, TD_velocity <dbl>, TD_velocity_abs <dbl>,
## #   TR_displacement_sm <dbl>, TR_velocity <dbl>, TR_velocity_abs <dbl>,
## #   fan_line <int>, X <dbl>, Y <dbl>, word <chr>, language <chr>, sex <chr>,
## #   item <int>, ipa <chr>, c1 <chr>, c1_phonation <chr>, vowel <chr>,
## #   anteropost <chr>, height <chr>, c2 <chr>, c2_phonation <chr>,
## #   c2_place <chr>
…
